Spatial Data Science
…
Question: Interpolate Mean \(NO_2\) concentrations in air in Germany, in 2017

Step 1: Load necessary packages

library(gstat)
library(tidyverse)

Step 2: Read data

no2 <- read_csv(system.file("external/no2.csv", 
    package = "gstat"), show_col_types = FALSE)
no2

# A tibble: 74 × 21
   station_european_code station_local_code country_iso_code country_name
   <chr>                 <chr>              <chr>            <chr>       
 1 DENI063               DENI063            DE               Germany     
 2 DEBY109               DEBY109            DE               Germany     
 3 DEBE056               DEBE056            DE               Germany     
 4 DEBE062               DEBE062            DE               Germany     
 5 DEBE032               DEBE032            DE               Germany     
 6 DEHE046               DEHE046            DE               Germany     
 7 DEBY122               DEBY122            DE               Germany     
 8 DESL019               DESL019            DE               Germany     
 9 DENW081               DENW081            DE               Germany     
10 DESH008               DESH008            DE               Germany     
# ℹ 64 more rows
# ℹ 17 more variables: station_name <chr>, station_start_date <date>,
#   station_end_date <lgl>, type_of_station <chr>,
#   station_ozone_classification <chr>, station_type_of_area <chr>,
#   station_subcat_rural_back <chr>, street_type <chr>,
#   station_longitude_deg <dbl>, station_latitude_deg <dbl>,
#   station_altitude <dbl>, station_city <chr>, lau_level1_code <dbl>, …
…
convert no2 to spatial object

no2.sf <- st_as_sf(no2, crs = "OGC:CRS84", coords = 
    c("station_longitude_deg", "station_latitude_deg")) |>
    st_transform(crs) 
no2.sf

Simple feature collection with 74 features and 19 fields
Geometry type: POINT
Dimension:     XY
Bounding box:  xmin: 304638.2 ymin: 5263687 xmax: 900829.7 ymax: 6086661
Projected CRS: WGS 84 / UTM zone 32N
# A tibble: 74 × 20
   station_european_code station_local_code country_iso_code country_name
 * <chr>                 <chr>              <chr>            <chr>       
 1 DENI063               DENI063            DE               Germany     
 2 DEBY109               DEBY109            DE               Germany     
 3 DEBE056               DEBE056            DE               Germany     
 4 DEBE062               DEBE062            DE               Germany     
 5 DEBE032               DEBE032            DE               Germany     
 6 DEHE046               DEHE046            DE               Germany     
 7 DEBY122               DEBY122            DE               Germany     
 8 DESL019               DESL019            DE               Germany     
 9 DENW081               DENW081            DE               Germany     
10 DESH008               DESH008            DE               Germany     
# ℹ 64 more rows
# ℹ 16 more variables: station_name <chr>, station_start_date <date>,
#   station_end_date <lgl>, type_of_station <chr>,
#   station_ozone_classification <chr>, station_type_of_area <chr>,
#   station_subcat_rural_back <chr>, street_type <chr>, station_altitude <dbl>,
#   station_city <chr>, lau_level1_code <dbl>, lau_level2_code <dbl>,
#   lau_level2_name <chr>, EMEP_station <chr>, NO2 <dbl>, …
…
